{
  "armies": [
    {
      "name": "USA",
      "squads": [
        {
          "name": "Squad 1",
          "units": [
            {
              "health": 50,
              "name": "Soldier 1",
              "unit_type": "Soldier"
            },
            {
              "health": 50,
              "name": "Soldier 2",
              "unit_type": "Soldier"
            },
            {
              "health": 50,
              "name": "Soldier 3",
              "unit_type": "Soldier"
            },
            {
              "health": 50,
              "name": "Soldier 4",
              "unit_type": "Soldier"
            },
            {
              "health": 50,
              "name": "Soldier 5",
              "unit_type": "Soldier"
            },
            {
              "health": 50,
              "name": "Soldier 6",
              "unit_type": "Soldier"
            },
            {
              "health": 50,
              "name": "Soldier 7",
              "unit_type": "Soldier"
            },
            {
              "health": 50,
              "name": "Soldier 8",
              "unit_type": "Soldier"
            },
            {
              "health": 50,
              "name": "Soldier 9",
              "unit_type": "Soldier"
            },
            {
              "health": 200,
              "name": "Vehicle 1",
              "operators": [
                {
                  "health": 50,
                  "name": "Soldier 1",
                  "unit_type": "Soldier"
                },
                {
                  "health": 50,
                  "name": "Soldier 2",
                  "unit_type": "Soldier"
                }
              ],
              "unit_type": "Vehicle"
            },
            {
              "health": 200,
              "name": "Vehicle 2",
              "operators": [
                {
                  "health": 50,
                  "name": "Soldier 1",
                  "unit_type": "Soldier"
                },
                {
                  "health": 50,
                  "name": "Soldier 2",
                  "unit_type": "Soldier"
                }
              ],
              "unit_type": "Vehicle"
            }
          ]
        },
        {
          "name": "Squad 2",
          "units": [
            {
              "health": 50,
              "name": "Soldier 1",
              "unit_type": "Soldier"
            },
            {
              "health": 50,
              "name": "Soldier 2",
              "unit_type": "Soldier"
            },
            {
              "health": 50,
              "name": "Soldier 3",
              "unit_type": "Soldier"
            },
            {
              "health": 50,
              "name": "Soldier 4",
              "unit_type": "Soldier"
            },
            {
              "health": 50,
              "name": "Soldier 5",
              "unit_type": "Soldier"
            },
            {
              "health": 50,
              "name": "Soldier 6",
              "unit_type": "Soldier"
            },
            {
              "health": 50,
              "name": "Soldier 7",
              "unit_type": "Soldier"
            },
            {
              "health": 50,
              "name": "Soldier 8",
              "unit_type": "Soldier"
            },
            {
              "health": 200,
              "name": "Vehicle 1",
              "operators": [
                {
                  "health": 50,
                  "name": "Soldier 1",
                  "unit_type": "Soldier"
                }
              ],
              "unit_type": "Vehicle"
            },
            {
              "health": 200,
              "name": "Vehicle 2",
              "operators": [
                {
                  "health": 50,
                  "name": "Soldier 1",
                  "unit_type": "Soldier"
                },
                {
                  "health": 50,
                  "name": "Soldier 2",
                  "unit_type": "Soldier"
                }
              ],
              "unit_type": "Vehicle"
            },
            {
              "health": 200,
              "name": "Vehicle 3",
              "operators": [
                {
                  "health": 50,
                  "name": "Soldier 1",
                  "unit_type": "Soldier"
                },
                {
                  "health": 50,
                  "name": "Soldier 2",
                  "unit_type": "Soldier"
                }
              ],
              "unit_type": "Vehicle"
            }
          ]
        },
        {
          "name": "Squad 3",
          "units": [
            {
              "health": 50,
              "name": "Soldier 1",
              "unit_type": "Soldier"
            },
            {
              "health": 50,
              "name": "Soldier 2",
              "unit_type": "Soldier"
            },
            {
              "health": 50,
              "name": "Soldier 3",
              "unit_type": "Soldier"
            },
            {
              "health": 50,
              "name": "Soldier 4",
              "unit_type": "Soldier"
            },
            {
              "health": 50,
              "name": "Soldier 5",
              "unit_type": "Soldier"
            },
            {
              "health": 50,
              "name": "Soldier 6",
              "unit_type": "Soldier"
            },
            {
              "health": 50,
              "name": "Soldier 7",
              "unit_type": "Soldier"
            },
            {
              "health": 50,
              "name": "Soldier 8",
              "unit_type": "Soldier"
            },
            {
              "health": 50,
              "name": "Soldier 9",
              "unit_type": "Soldier"
            },
            {
              "health": 200,
              "name": "Vehicle 1",
              "operators": [
                {
                  "health": 50,
                  "name": "Soldier 1",
                  "unit_type": "Soldier"
                }
              ],
              "unit_type": "Vehicle"
            },
            {
              "health": 200,
              "name": "Vehicle 2",
              "operators": [
                {
                  "health": 50,
                  "name": "Soldier 1",
                  "unit_type": "Soldier"
                }
              ],
              "unit_type": "Vehicle"
            },
            {
              "health": 200,
              "name": "Vehicle 3",
              "operators": [
                {
                  "health": 50,
                  "name": "Soldier 1",
                  "unit_type": "Soldier"
                }
              ],
              "unit_type": "Vehicle"
            }
          ]
        }
      ],
      "strategy": "weakest_strategy"
    },
    {
      "name": "Canada",
      "squads": [
        {
          "name": "Squad 1",
          "units": [
            {
              "health": 50,
              "name": "Soldier 1",
              "unit_type": "Soldier"
            },
            {
              "health": 50,
              "name": "Soldier 2",
              "unit_type": "Soldier"
            },
            {
              "health": 50,
              "name": "Soldier 3",
              "unit_type": "Soldier"
            },
            {
              "health": 50,
              "name": "Soldier 4",
              "unit_type": "Soldier"
            },
            {
              "health": 50,
              "name": "Soldier 5",
              "unit_type": "Soldier"
            },
            {
              "health": 50,
              "name": "Soldier 6",
              "unit_type": "Soldier"
            },
            {
              "health": 50,
              "name": "Soldier 7",
              "unit_type": "Soldier"
            },
            {
              "health": 200,
              "name": "Vehicle 1",
              "operators": [
                {
                  "health": 50,
                  "name": "Soldier 1",
                  "unit_type": "Soldier"
                }
              ],
              "unit_type": "Vehicle"
            },
            {
              "health": 200,
              "name": "Vehicle 2",
              "operators": [
                {
                  "health": 50,
                  "name": "Soldier 1",
                  "unit_type": "Soldier"
                }
              ],
              "unit_type": "Vehicle"
            },
            {
              "health": 200,
              "name": "Vehicle 3",
              "operators": [
                {
                  "health": 50,
                  "name": "Soldier 1",
                  "unit_type": "Soldier"
                }
              ],
              "unit_type": "Vehicle"
            }
          ]
        },
        {
          "name": "Squad 2",
          "units": [
            {
              "health": 50,
              "name": "Soldier 1",
              "unit_type": "Soldier"
            },
            {
              "health": 50,
              "name": "Soldier 2",
              "unit_type": "Soldier"
            },
            {
              "health": 50,
              "name": "Soldier 3",
              "unit_type": "Soldier"
            },
            {
              "health": 50,
              "name": "Soldier 4",
              "unit_type": "Soldier"
            },
            {
              "health": 50,
              "name": "Soldier 5",
              "unit_type": "Soldier"
            },
            {
              "health": 50,
              "name": "Soldier 6",
              "unit_type": "Soldier"
            },
            {
              "health": 200,
              "name": "Vehicle 1",
              "operators": [
                {
                  "health": 50,
                  "name": "Soldier 1",
                  "unit_type": "Soldier"
                }
              ],
              "unit_type": "Vehicle"
            },
            {
              "health": 200,
              "name": "Vehicle 2",
              "operators": [
                {
                  "health": 50,
                  "name": "Soldier 1",
                  "unit_type": "Soldier"
                }
              ],
              "unit_type": "Vehicle"
            }
          ]
        },
        {
          "name": "Squad 3",
          "units": [
            {
              "health": 50,
              "name": "Soldier 1",
              "unit_type": "Soldier"
            },
            {
              "health": 50,
              "name": "Soldier 2",
              "unit_type": "Soldier"
            },
            {
              "health": 50,
              "name": "Soldier 3",
              "unit_type": "Soldier"
            },
            {
              "health": 50,
              "name": "Soldier 4",
              "unit_type": "Soldier"
            },
            {
              "health": 50,
              "name": "Soldier 5",
              "unit_type": "Soldier"
            },
            {
              "health": 50,
              "name": "Soldier 6",
              "unit_type": "Soldier"
            },
            {
              "health": 50,
              "name": "Soldier 7",
              "unit_type": "Soldier"
            },
            {
              "health": 200,
              "name": "Vehicle 1",
              "operators": [
                {
                  "health": 50,
                  "name": "Soldier 1",
                  "unit_type": "Soldier"
                }
              ],
              "unit_type": "Vehicle"
            },
            {
              "health": 200,
              "name": "Vehicle 2",
              "operators": [
                {
                  "health": 50,
                  "name": "Soldier 1",
                  "unit_type": "Soldier"
                },
                {
                  "health": 50,
                  "name": "Soldier 2",
                  "unit_type": "Soldier"
                }
              ],
              "unit_type": "Vehicle"
            },
            {
              "health": 200,
              "name": "Vehicle 3",
              "operators": [
                {
                  "health": 50,
                  "name": "Soldier 1",
                  "unit_type": "Soldier"
                },
                {
                  "health": 50,
                  "name": "Soldier 2",
                  "unit_type": "Soldier"
                }
              ],
              "unit_type": "Vehicle"
            }
          ]
        }
      ],
      "strategy": "random_strategy"
    }
  ],
  "name": "Sim. 1",
  "speed": 10
}